{
    "entity_type_id": "4",
    "attribute_set_id": "16",
    "type_id": "configurable",
    "sku": "1-110-10",
    "has_options": "1",
    "required_options": "1",
    "created_at": "2015-05-08 08:41:47",
    "name": "Bahco Flat file, 250mm (10\u201d), bastard cut",
    "meta_title": "Bahco Flat file, 250mm (10\u201d), bastard cut",
    "meta_description": "Bahco Flat file, 250mm (10\u201d), bastard cut\r\n",
    "image": "\/1\/-\/1-110-06-1-2_2.jpg",
    "small_image": "\/1\/-\/1-110-06-1-2_2.jpg",
    "thumbnail": "\/1\/-\/1-110-06-1-2_2.jpg",
    "url_key": "bahco-flat-file-250mm-10-bastard-cut",
    "url_path": "bahco-flat-file-250mm-10-bastard-cut.html",
    "custom_design": null,
    "page_layout": null,
    "options_container": "container2",
    "image_label": "Bahco Flat file, 250mm (10\u201d), bastard cut",
    "small_image_label": "Bahco Flat file, 250mm (10\u201d), bastard cut",
    "thumbnail_label": "Bahco Flat file, 250mm (10\u201d), bastard cut",
    "country_of_manufacture": null,
    "msrp_enabled": "Use config",
    "msrp_display_actual_price_type": "Use config",
    "gift_message_available": null,
    "cost_price_1": null,
    "cost_price_2": null,
    "cost_price_3": null,
    "pkg_length": "47.5",
    "pkg_height": "6",
    "pkg_width": "10.5",
    "temando_package_1_description": "1-110-10_1_",
    "temando_package_2_description": null,
    "temando_package_3_description": null,
    "temando_package_4_description": null,
    "temando_package_5_description": null,
    "manufacturer": "Bahco",
    "color": null,
    "status": "Enabled",
    "visibility": "Catalog, Search",
    "enable_googlecheckout": "Yes",
    "tax_class_id": "Taxable Goods",
    "power_type": null,
    "maximum_psi": null,
    "fuel_type": null,
    "length_mm": null,
    "pieces_qty": null,
    "material": null,
    "handle_material": null,
    "lubricant_base": null,
    "diameter_mm": null,
    "driver_style": null,
    "temando_packaging_mode": "Yes",
    "temando_package_1_type": "0",
    "temando_package_1_fragile": "0",
    "temando_package_2_type": "0",
    "temando_package_2_fragile": "0",
    "temando_package_3_type": "0",
    "temando_package_3_fragile": "0",
    "temando_package_4_type": "0",
    "temando_package_4_fragile": "0",
    "temando_package_5_type": "0",
    "temando_package_5_fragile": "0",
    "finish": null,
    "sds_type": null,
    "size_m": null,
    "size_type": null,
    "type": null,
    "size_mm_in": null,
    "teeth_per_inch": null,
    "cut": null,
    "price": "25.0000",
    "special_price": null,
    "msrp": null,
    "cost_price": null,
    "temando_package_1_value": "25.0000",
    "temando_package_1_weight": "0.3000",
    "temando_package_1_length": "47.5000",
    "temando_package_1_width": "10.5000",
    "temando_package_1_height": "6.0000",
    "temando_package_2_value": null,
    "temando_package_2_weight": null,
    "temando_package_2_length": null,
    "temando_package_2_width": null,
    "temando_package_2_height": null,
    "temando_package_3_value": null,
    "temando_package_3_weight": null,
    "temando_package_3_length": null,
    "temando_package_3_width": null,
    "temando_package_3_height": null,
    "temando_package_4_value": null,
    "temando_package_4_weight": null,
    "temando_package_4_length": null,
    "temando_package_4_width": null,
    "temando_package_4_height": null,
    "temando_package_5_value": null,
    "temando_package_5_weight": null,
    "temando_package_5_length": null,
    "temando_package_5_width": null,
    "temando_package_5_height": null,
    "description": "Flat file, 250mm (10\u201d), bastard cut, ergonomic handle\r\nFlat file, 250mm (10\u201d), 2nd cut, ergonomic handle\r\nFlat file, 250mm (10\u201d), smooth cut, ergonomic handle\r\n",
    "short_description": "Flat file, 250mm (10\u201d)",
    "meta_keyword": "Bahco Flat file, 250mm (10\u201d), bastard cut\r\n",
    "custom_layout_update": null,
    "special_features": null,
    "warranty_text": null,
    "whats_in_box": null,
    "voltage": null,
    "watts": null,
    "capacity_text": null,
    "specifications": null,
    "special_from_date": null,
    "special_to_date": null,
    "news_from_date": null,
    "news_to_date": null,
    "custom_design_from": null,
    "custom_design_to": null,
    "video_gallery": {
        "videos": [],
        "values": []
    },
    "group_price": [],
    "group_price_changed": 0,
    "media_gallery": {
        "images": [
            {
                "value_id": "32241",
                "file": "\/1\/-\/1-110-06-1-2_2.jpg",
                "label": "Bahco Flat file, 250mm (10\u201d), bastard cut",
                "position": "1",
                "disabled": "0",
                "label_default": "Bahco Flat file, 250mm (10\u201d), bastard cut",
                "position_default": "1",
                "disabled_default": "0",
                "url": "http:\/\/utmaster.inklily.com\/media\/catalog\/product\/1\/-\/1-110-06-1-2_2.jpg"
            }
        ],
        "values": []
    },
    "tier_price": [],
    "tier_price_changed": 0,
    "is_in_stock": "1",
    "is_salable": null,
    "configurable_attributes_data": [
        {
            "id": "110",
            "label": "cut",
            "use_default": "0",
            "position": "0",
            "values": [
                {
                    "product_super_attribute_id": "110",
                    "value_index": "801",
                    "label": "2nd cut",
                    "default_label": "2nd cut",
                    "store_label": "2nd cut",
                    "is_percent": 0,
                    "pricing_value": null,
                    "use_default_value": true
                },
                {
                    "product_super_attribute_id": "110",
                    "value_index": "802",
                    "label": "Bastard cut",
                    "default_label": "Bastard cut",
                    "store_label": "Bastard cut",
                    "is_percent": 0,
                    "pricing_value": null,
                    "use_default_value": true
                },
                {
                    "product_super_attribute_id": "110",
                    "value_index": "800",
                    "label": "Smooth cut",
                    "default_label": "Smooth cut",
                    "store_label": "Smooth cut",
                    "is_percent": "0",
                    "pricing_value": "1.0000",
                    "use_default_value": true,
                    "value_id": "229"
                }
            ],
            "attribute_id": "361",
            "attribute_code": "cut",
            "frontend_label": "cut",
            "store_label": "cut",
            "attribute": "cut"
        }
    ],
    "configurable_products_data": {
        "": []
    }
}